shop\controllers\dto\CategoryDto.class
shop\controllers\AdminController.class
shop\controllers\ContactsController.class
shop\model\repositories\ProductsRepository.class
shop\config\MvcConfig.class
shop\controllers\CatalogController.class
shop\config\EncryptionConfig.class
shop\model\entities\User.class
shop\config\WebSecurityConfig.class
shop\model\entities\Product.class
shop\model\entities\Role.class
shop\Program.class
shop\model\entities\Statistics.class
shop\model\entities\Category.class
shop\controllers\RegistrationController.class
shop\controllers\StatisticsController.class
shop\model\repositories\UserRepository.class
shop\model\repositories\CategoriesRepository.class
shop\model\repositories\StatisticsRepository.class
shop\controllers\CartController.class
shop\controllers\ProductController.class
shop\controllers\IndexController.class
shop\controllers\dto\ProductDto.class
